-------------------------------------------------------------------------------
Test set: MyTests
-------------------------------------------------------------------------------
Tests run: 1, Failures: 0, Errors: 0, Skipped: 0, Time elapsed: 0.252 s -- in MyTests
